(run){
  ERROR 0.99
  FINISH_OPTIMIZATION 0
  PDF_LIBRARY None
  EVENT_GENERATION_MODE Weighted
  BEAM_1 21 7000; BEAM_2 21 7000;
  SCALES VAR{sqr(91.1876)}; ALPHAS(MZ) 0.118;

  EVENTS 0; MEGEN:=Comix; COLS:=1; CSW:=1;
  COLOUR_SCHEME COLS;
}(run);
(processes){
  Process 21 21 -> 21 21;
  Order (2,0);
  Enable_MHV CSW;
  ME_Generator MEGEN;
  Integrator Rambo;
  End process;
}(processes);
(selector){
  PT 21 20 E_CMS;
  Y 21 -2.5 2.5;
  DR 21 21 0.4 1e20;
}(selector);
